{
    "Ma_so":"F_002",
    "Ho_ten":"Nguyễn Đức Dzương",
    "Ten_Dang_nhap":"Duc DZuong",
    "Mat_khau":"123",
    "Email":"Duc.Dzuong@gmail.com",
    "Dia_chi":"F82, Tân Hiệp, Long Thành, Đồng Nai",
    "Hinh": "F_002.png",
    "Dien_thoai":"0908281090",
    "Danh_sach_Rau_trong":[
        {
            "Ma_rau_trong":"F_001_202107180001",
            "Rau_trong":{
                "Ma_Loai_rau":"c",
                "Ten_Loai_rau":"Cải",
                "Ma_rau": "c_01",
                "Ten_rau": "Cải thìa cao sản"
            },
            "Ngay_trong":"202107180001",
            "Danh_sach_Hinh_anh":[
                {
                    "Ma_hinh":"202107180001",
                    "Ten_hinh":"Ngày đầu tiêm",
                    "Binh_luan":"Hy vọng có cái mà ăn",
                    "Binh_luan_con":"Chúc bạn may mắn sớm nha hi hi"
                },
                {
                    "Ma_hinh":"202107190001",
                    "Ten_hinh":"Ngày đầu thu 2",
                    "Binh_luan":" Vẫn còn Hy vọng có cái mà ăn",
                    "Binh_luan_con":"Chúc bạn may mắn sớm nha hi hi"
                }
            ],
            "Danh_sach_Ghi_chu":[
                {
                    "Ngay":"202107180005",
                    "Noi_dung":"Hôm nay là ngày đầu tiên trông rau",
                    "Thong_so_rau":{
                        "Chieu_cao":"1 cm",
                        "Can_nang":"1g",
                        "Hinh":"F001_202107180006",
                        "Tuoi_nuoc":"True",
                        "Bon_phan":"True", 
                        "Nhiet_do":"27",
                        "Do_am":"60"
                    }
                }
            ]
            
        }
    ]

}