{
   "Ma_Cong_ty":"VGP",
   "Ten_Cong_ty":"Vườn ươm sức khỏe",
   "Dia_chi":"Hồ Chí Minh",
   "Dien_thoai":"0908281090",
   "Email":"quoc269@gmail.com",
    "Danh_sach_Quan_ly":[
        {
            "Ma_Quan_ly":"QL_01",
            "Ten_Dang_nhap":"QL_01",
            "Mat_khau":"QL_01",
            "Email":"quoc269@gmail.com",
            "Dien_thoai":"0908281090",
            "Ho_ten":"Nguyen Viet Quoc",
            "Dia_chi":"Hồ Chí Minh"
        },
        {
            "Ma_Quan_ly":"QL_02",
            "Ten_Dang_nhap":"QL_02",
            "Mat_khau":"QL_02",
            "Email":"dzuong.nguyen.duc@gmail.com",
            "Dien_thoai":"0995977608",
            "Ho_ten":"Nguyen Đức Dzương",
            "Dia_chi":"Vũng Tàu"
        }
    ],
    "Danh_sach_Loai_rau":[
        {
            "Ma_Loai_rau":"C",
            "Ten_Loai_rau":"Cải",
            "Hinh":"C.jpg",
            "Danh_sach_Rau":[
                {
                    "Ma_rau": "C_01",
                    "Ten_rau": "Cải thìa cao sản",
                    "Hinh":"C_01.jpg",
                    "Thoi_vu_trong": "Quanh năm",
                    "Luong_giong": "Sạ 300g/1000m2",
                    "Mat_do_trong": "20 x 20cm (cây x cây)",
                    "Thoi_gian_thu_hoach": "30-35 ngày sau gieo",
                    "Quy_trinh_Ngam_u_hat_giong": "Ngâm hạt giống vào nước ấm (2 sôi + 3 lạnh) từ 4 đến 5 giờ cho hạt thấm đều nước. Sau đó rửa sạch rồi đem ủ hạt từ 2 đến 3 ngày, khi nào hạt nứt nanh thì đem gieo",
                    "Luu_y":"Hạt giống: 1/ Bảo quản nơi khô ráo, không để trực tiếp dưới ánh nắng hoặc nơi có nhiệt độ cao. 2/ Hạt giống đã được xử lý không được ăn" 
                },
                {
                    "Ma_rau": "C_02",
                    "Ten_rau": "Cải thảo",
                    "Hinh":"C_02.jpg",
                    "Thoi_vu_trong": "Quanh năm",
                    "Luong_giong": "Sạ 300g/1000m2",
                    "Mat_do_trong": "20 x 20cm (cây x cây)",
                    "Thoi_gian_thu_hoach": "30-35 ngày sau gieo",
                    "Quy_trinh_Ngam_u_hat_giong": "Ngâm hạt giống vào nước ấm (2 sôi + 3 lạnh) từ 4 đến 5 giờ cho hạt thấm đều nước. Sau đó rửa sạch rồi đem ủ hạt từ 2 đến 3 ngày, khi nào hạt nứt nanh thì đem gieo",
                    "Luu_y":"Hạt giống: 1/ Bảo quản nơi khô ráo, không để trực tiếp dưới ánh nắng hoặc nơi có nhiệt độ cao. 2/ Hạt giống đã được xử lý không được ăn" 
                },
                {
                    "Ma_rau": "C_03",
                    "Ten_rau": "Cải bắp",
                    "Hinh":"C_03.jpg",
                    "Thoi_vu_trong": "Quanh năm",
                    "Luong_giong": "Sạ 300g/1000m2",
                    "Mat_do_trong": "20 x 20cm (cây x cây)",
                    "Thoi_gian_thu_hoach": "30-35 ngày sau gieo",
                    "Quy_trinh_Ngam_u_hat_giong": "Ngâm hạt giống vào nước ấm (2 sôi + 3 lạnh) từ 4 đến 5 giờ cho hạt thấm đều nước. Sau đó rửa sạch rồi đem ủ hạt từ 2 đến 3 ngày, khi nào hạt nứt nanh thì đem gieo",
                    "Luu_y":"Hạt giống: 1/ Bảo quản nơi khô ráo, không để trực tiếp dưới ánh nắng hoặc nơi có nhiệt độ cao. 2/ Hạt giống đã được xử lý không được ăn" 
                }

            ]
        },
        {
            "Ma_Loai_rau":"RT",
            "Ten_Loai_rau":"Rau Thơm",
            "Hinh":"RT.jpg",
            "Danh_sach_Rau":[
                {
                    "Ma_rau": "RT_01",
                    "Ten_rau": "Ngò rí",
                    "Hinh":"RT_01.jpg",
                    "Thoi_vu_trong": "Quanh năm",
                    "Luong_giong": "Sạ 300g/1000m2",
                    "Mat_do_trong": "20 x 20cm (cây x cây)",
                    "Thoi_gian_thu_hoach": "30-35 ngày sau gieo",
                    "Quy_trinh_Ngam_u_hat_giong": "Ngâm hạt giống vào nước ấm (2 sôi + 3 lạnh) từ 4 đến 5 giờ cho hạt thấm đều nước. Sau đó rửa sạch rồi đem ủ hạt từ 2 đến 3 ngày, khi nào hạt nứt nanh thì đem gieo",
                    "Luu_y":"Hạt giống: 1/ Bảo quản nơi khô ráo, không để trực tiếp dưới ánh nắng hoặc nơi có nhiệt độ cao. 2/ Hạt giống đã được xử lý không được ăn" 
                },
                {
                    "Ma_rau": "RT_02",
                    "Ten_rau": "Ngò gai",
                    "Hinh":"RT_02.jpg",
                    "Thoi_vu_trong": "Quanh năm",
                    "Luong_giong": "Sạ 300g/1000m2",
                    "Mat_do_trong": "20 x 20cm (cây x cây)",
                    "Thoi_gian_thu_hoach": "30-35 ngày sau gieo",
                    "Quy_trinh_Ngam_u_hat_giong": "Ngâm hạt giống vào nước ấm (2 sôi + 3 lạnh) từ 4 đến 5 giờ cho hạt thấm đều nước. Sau đó rửa sạch rồi đem ủ hạt từ 2 đến 3 ngày, khi nào hạt nứt nanh thì đem gieo",
                    "Luu_y":"Hạt giống: 1/ Bảo quản nơi khô ráo, không để trực tiếp dưới ánh nắng hoặc nơi có nhiệt độ cao. 2/ Hạt giống đã được xử lý không được ăn" 
                },
                {
                    "Ma_rau": "RT_03",
                    "Ten_rau": "Hành",
                    "Hinh":"RT_03.jpg",
                    "Thoi_vu_trong": "Quanh năm",
                    "Luong_giong": "Sạ 300g/1000m2",
                    "Mat_do_trong": "20 x 20cm (cây x cây)",
                    "Thoi_gian_thu_hoach": "30-35 ngày sau gieo",
                    "Quy_trinh_Ngam_u_hat_giong": "Ngâm hạt giống vào nước ấm (2 sôi + 3 lạnh) từ 4 đến 5 giờ cho hạt thấm đều nước. Sau đó rửa sạch rồi đem ủ hạt từ 2 đến 3 ngày, khi nào hạt nứt nanh thì đem gieo",
                    "Luu_y":"Hạt giống: 1/ Bảo quản nơi khô ráo, không để trực tiếp dưới ánh nắng hoặc nơi có nhiệt độ cao. 2/ Hạt giống đã được xử lý không được ăn" 
                }

            ]
        },
        {
            "Ma_Loai_rau":"RAQ",
            "Ten_Loai_rau":"Rau Ăn Quả",
            "Hinh":"RAQ.jpg",
            "Danh_sach_Rau":[
                {
                    "Ma_rau": "RAQ_01",
                    "Ten_rau": "Dưa leo",
                    "Hinh":"RAQ_01.jpg",
                    "Thoi_vu_trong": "Quanh năm",
                    "Luong_giong": "Sạ 300g/1000m2",
                    "Mat_do_trong": "20 x 20cm (cây x cây)",
                    "Thoi_gian_thu_hoach": "30-35 ngày sau gieo",
                    "Quy_trinh_Ngam_u_hat_giong": "Ngâm hạt giống vào nước ấm (2 sôi + 3 lạnh) từ 4 đến 5 giờ cho hạt thấm đều nước. Sau đó rửa sạch rồi đem ủ hạt từ 2 đến 3 ngày, khi nào hạt nứt nanh thì đem gieo",
                    "Luu_y":"Hạt giống: 1/ Bảo quản nơi khô ráo, không để trực tiếp dưới ánh nắng hoặc nơi có nhiệt độ cao. 2/ Hạt giống đã được xử lý không được ăn" 
                },
                {
                    "Ma_rau": "RAQ_02",
                    "Ten_rau": "Cà chua",
                    "Hinh":"RAQ_02.jpg",
                    "Thoi_vu_trong": "Quanh năm",
                    "Luong_giong": "Sạ 300g/1000m2",
                    "Mat_do_trong": "20 x 20cm (cây x cây)",
                    "Thoi_gian_thu_hoach": "30-35 ngày sau gieo",
                    "Quy_trinh_Ngam_u_hat_giong": "Ngâm hạt giống vào nước ấm (2 sôi + 3 lạnh) từ 4 đến 5 giờ cho hạt thấm đều nước. Sau đó rửa sạch rồi đem ủ hạt từ 2 đến 3 ngày, khi nào hạt nứt nanh thì đem gieo",
                    "Luu_y":"Hạt giống: 1/ Bảo quản nơi khô ráo, không để trực tiếp dưới ánh nắng hoặc nơi có nhiệt độ cao. 2/ Hạt giống đã được xử lý không được ăn" 
                },
                {
                    "Ma_rau": "RAQ_03",
                    "Ten_rau": "Khổ qua",
                    "Hinh":"RAQ_03.jpg",
                    "Thoi_vu_trong": "Quanh năm",
                    "Luong_giong": "Sạ 300g/1000m2",
                    "Mat_do_trong": "20 x 20cm (cây x cây)",
                    "Thoi_gian_thu_hoach": "30-35 ngày sau gieo",
                    "Quy_trinh_Ngam_u_hat_giong": "Ngâm hạt giống vào nước ấm (2 sôi + 3 lạnh) từ 4 đến 5 giờ cho hạt thấm đều nước. Sau đó rửa sạch rồi đem ủ hạt từ 2 đến 3 ngày, khi nào hạt nứt nanh thì đem gieo",
                    "Luu_y":"Hạt giống: 1/ Bảo quản nơi khô ráo, không để trực tiếp dưới ánh nắng hoặc nơi có nhiệt độ cao. 2/ Hạt giống đã được xử lý không được ăn" 
                }

            ]
        },
        {
            "Ma_Loai_rau":"LK",
            "Ten_Loai_rau":"Loại khác",
            "Hinh":"LK.jpg",
            "Danh_sach_Rau":[
                {
                    "Ma_rau": "RLK",
                    "Ten_rau": "Tên Rau tự chọn",
                    "Hinh":"LK.jpg",
                    "Thoi_vu_trong": "",
                    "Luong_giong": "",
                    "Mat_do_trong": "",
                    "Thoi_gian_thu_hoach": "",
                    "Quy_trinh_Ngam_u_hat_giong": "",
                    "Luu_y":"Hạt giống: 1/ Bảo quản nơi khô ráo, không để trực tiếp dưới ánh nắng hoặc nơi có nhiệt độ cao. 2/ Hạt giống đã được xử lý không được ăn" 
                }
            ]
        }
    ],
    "Danh_sach_Thiet_bi":[
        {
            "Ma_Thiet_bi":"TB_01",
            "Ten_Thiet_bi":"Máy đo PH"
        }
    ]
    
}